[
    {
        "id": 1,
        "name":"t-shirt",
        "price":800,
        "image":"./images/White_O_Crew_Regular_NoPocket.webp",
        "article":54768567,
        "color":"white"
    },
    {
        "id": 2,
        "name":"sweatshirt",
        "price":1500,
        "image":"./images/black-front-view-tee-sweatshirt-sweater-long-sleeve-white-background_21085-6321.avif",
        "article":7889,
        "color":"black"
    },
    {
        "id": 3,
        "name":"shirt",
        "price":1300,
        "image":"./images/shirt_noun_002_33400.jpeg",
        "article":78589,
        "color":"blue"
    },
    {
        "id": 4,
        "name":"jeans",
        "price":1100,
        "image":"./images/eaf54767ea56b733ba14ba6da6b7b7a3.jpeg",
        "article":65978,
        "color":"blue"
    },
    {
        "id": 5,
        "name":"pants",
        "price":1400,
        "image":"./images/sp-pgm-dc-11.jpeg",
        "article":7609,
        "color":"brown"
    },
    {
        "id": 6,
        "name":"dress",
        "price":2000,
        "image":"./images/761x1000.webp",
        "article":46576,
        "color":"red"
    },
    {
        "id": 7,
        "name":"jacket",
        "price":2500,
        "image":"./images/ku-gmn-dc-1101a.jpeg",
        "article":3356,
        "color":"beige"
    },
    {
        "id": 8,
        "name":"sweater",
        "price":1600,
        "image":"./images/MerinoWoolBeige_2048x2048-min_5365e55d-eab2-4110-83fc-b666a14b01ea_1400x.webp",
        "article": 9877,
        "color":"milk"
    },
    {
        "id": 9,
        "name":"coat",
        "price":2100,
        "image":"./images/coat_85116334_1000.jpeg",
        "article":6475,
        "color":"black"
    },
    {
        "id": 10,
        "name":"skirt",
        "price":890,
        "image":"./images/main-qimg-5fbef3a9eb16542fd51bf83184f143cd-lq.jpeg",
        "article":5646,
        "color":"pink"
    }
]
